<?xml version="1.0" encoding="UTF-8"?>
<svg width="27px" height="27px" viewBox="0 0 27 27" version="1.1" xmlns="http://www.w3.org/2000/svg" xmlns:xlink="http://www.w3.org/1999/xlink">
    <!-- Generator: Sketch 46 (44423) - http://www.bohemiancoding.com/sketch -->
    <title>Circle</title>
    <desc>Created with Sketch.</desc>
    <defs></defs>
    <g id="Expo-Template-Design-Tool" stroke="none" stroke-width="1" fill="none" fill-rule="evenodd">
        <g id="Conference-Attendees-Create-Expo-Badge-2d" transform="translate(-135.000000, -222.000000)" fill-rule="nonzero" fill="#979797">
            <g id="tools-panel" transform="translate(-2.000000, 141.000000)">
                <g id="Group-6" transform="translate(97.000000, 81.000000)">
                    <path d="M53.5,27 C46.0441559,27 40,20.9558441 40,13.5 C40,6.04415588 46.0441559,0 53.5,0 C60.9558441,0 67,6.04415588 67,13.5 C67,20.9558441 60.9558441,27 53.5,27 Z" id="Circle"></path>
                </g>
            </g>
        </g>
    </g>
</svg>